Untitled
================

Script for reading simulation files

Script for reading results

Parse

Apply over all datasets and models

    ## # A tibble: 42 x 9
    ## # Groups:   dataset [6]
    ##    dataset  wss.95 wss.99 wss.100 rrf.5 rrf.10 rrf.20  loss model       
    ##    <chr>     <dbl>  <dbl>   <dbl> <dbl>  <dbl>  <dbl> <dbl> <chr>       
    ##  1 software   92.0   94.0    81.0  99.0   99.3  100    1.37 SVM + D2V   
    ##  2 software   91.7   93.1    83.6  97.9   99.0  100    1.37 LR + D2V    
    ##  3 software   92.0   91.8    86.4  96.2   99.0  100    1.39 LR + TF-IDF 
    ##  4 software   92.3   88.6    83.1  96.2   98.2  100    1.45 NB + TF-IDF 
    ##  5 software   91.0   90.1    77.6  97.0   99.2   99.9  1.61 RF + D2V    
    ##  6 ptsd       91.7   89.6    89.6  97.3   99.8  100    1.74 LR + TF-IDF 
    ##  7 ptsd       91.7   89.6    89.3  97.3   99.6  100    1.78 NB + TF-IDF 
    ##  8 ptsd       90.1   88.3    87.3  95.0   98.6  100    1.92 LR + D2V    
    ##  9 software   92.0   91.0    46.0  97.2   99.0   99.0  1.94 SVM + TF-IDF
    ## 10 software   90.5   89.1    64.6  96.6   99.0   99.1  2.05 RF + TF-IDF 
    ## # … with 32 more rows
…
